module github.com/stashapp/stash

require (
	github.com/99designs/gqlgen v0.17.2
	github.com/Yamashou/gqlgenc v0.0.6
	github.com/anacrolix/dms v1.2.2
	github.com/antchfx/htmlquery v1.2.5-0.20211125074323-810ee8082758
	github.com/chromedp/cdproto v0.0.0-20210622022015-fe1827b46b84
	github.com/chromedp/chromedp v0.7.3
	github.com/corona10/goimagehash v1.0.3
	github.com/disintegration/imaging v1.6.0
	github.com/fvbommel/sortorder v1.1.0
	github.com/go-chi/chi v4.0.2+incompatible
	github.com/golang-jwt/jwt/v4 v4.0.0
	github.com/golang-migrate/migrate/v4 v4.15.0-beta.1
	github.com/gorilla/securecookie v1.1.1
	github.com/gorilla/sessions v1.2.0
	github.com/gorilla/websocket v1.5.0
	github.com/jinzhu/copier v0.0.0-20190924061706-b57f9002281a
	github.com/jmoiron/sqlx v1.3.1
	github.com/json-iterator/go v1.1.12
	github.com/mattn/go-sqlite3 v1.14.7
	github.com/natefinch/pie v0.0.0-20170715172608-9a0d72014007
	github.com/pkg/browser v0.0.0-20210911075715-681adbf594b8
	github.com/remeh/sizedwaitgroup v1.0.0
	github.com/robertkrimen/otto v0.0.0-20200922221731-ef014fd054ac
	github.com/shurcooL/graphql v0.0.0-20181231061246-d48a9a75455f
	github.com/sirupsen/logrus v1.8.1
	github.com/spf13/afero v1.8.2 // indirect
	github.com/spf13/pflag v1.0.5
	github.com/spf13/viper v1.10.1
	github.com/stretchr/testify v1.7.1
	github.com/tidwall/gjson v1.9.3
	github.com/tidwall/pretty v1.2.0 // indirect
	github.com/vektra/mockery/v2 v2.10.0
	golang.org/x/crypto v0.0.0-20220321153916-2c7772ba3064
	golang.org/x/image v0.5.0
	golang.org/x/net v0.7.0
	golang.org/x/sys v0.5.0
	golang.org/x/term v0.5.0
	golang.org/x/text v0.7.0
	golang.org/x/tools v0.1.12 // indirect
	gopkg.in/sourcemap.v1 v1.0.5 // indirect
	gopkg.in/yaml.v2 v2.4.0
)

require (
	github.com/asticode/go-astisub v0.20.0
	github.com/doug-martin/goqu/v9 v9.18.0
	github.com/go-chi/cors v1.2.1
	github.com/go-chi/httplog v0.2.1
	github.com/go-toast/toast v0.0.0-20190211030409-01e6764cf0a4
	github.com/hashicorp/golang-lru v0.5.4
	github.com/kermieisinthehouse/gosx-notifier v0.1.1
	github.com/kermieisinthehouse/systray v1.2.4
	github.com/lucasb-eyer/go-colorful v1.2.0
	github.com/spf13/cast v1.4.1
	github.com/vearutop/statigz v1.1.6
	github.com/vektah/dataloaden v0.3.0
	github.com/xWTF/chardet v0.0.0-20230208095535-c780f2ac244e
	github.com/zencoder/go-dash/v3 v3.0.2
	gopkg.in/guregu/null.v4 v4.0.0
)

require (
	github.com/agnivade/levenshtein v1.1.1 // indirect
	github.com/antchfx/xpath v1.2.0 // indirect
	github.com/asticode/go-astikit v0.20.0 // indirect
	github.com/asticode/go-astits v1.8.0 // indirect
	github.com/chromedp/sysutil v1.0.0 // indirect
	github.com/cpuguy83/go-md2man/v2 v2.0.1 // indirect
	github.com/davecgh/go-spew v1.1.1 // indirect
	github.com/fsnotify/fsnotify v1.5.1 // indirect
	github.com/go-chi/chi/v5 v5.0.0 // indirect
	github.com/gobwas/httphead v0.1.0 // indirect
	github.com/gobwas/pool v0.2.1 // indirect
	github.com/gobwas/ws v1.1.0-rc.5 // indirect
	github.com/golang/groupcache v0.0.0-20210331224755-41bb18bfe9da // indirect
	github.com/hashicorp/errwrap v1.0.0 // indirect
	github.com/hashicorp/go-multierror v1.1.0 // indirect
	github.com/hashicorp/hcl v1.0.0 // indirect
	github.com/inconshreveable/mousetrap v1.0.0 // indirect
	github.com/josharian/intern v1.0.0 // indirect
	github.com/magiconair/properties v1.8.6 // indirect
	github.com/mailru/easyjson v0.7.7 // indirect
	github.com/matryer/moq v0.2.3 // indirect
	github.com/mitchellh/go-homedir v1.1.0 // indirect
	github.com/mitchellh/mapstructure v1.5.0 // indirect
	github.com/modern-go/concurrent v0.0.0-20180306012644-bacd9c7ef1dd // indirect
	github.com/modern-go/reflect2 v1.0.2 // indirect
	github.com/nfnt/resize v0.0.0-20180221191011-83c6a9932646 // indirect
	github.com/nu7hatch/gouuid v0.0.0-20131221200532-179d4d0c4d8d // indirect
	github.com/pelletier/go-toml v1.9.4 // indirect
	github.com/pkg/errors v0.9.1 // indirect
	github.com/pmezard/go-difflib v1.0.0 // indirect
	github.com/rs/zerolog v1.26.1 // indirect
	github.com/russross/blackfriday/v2 v2.1.0 // indirect
	github.com/spf13/cobra v1.4.0 // indirect
	github.com/spf13/jwalterweatherman v1.1.0 // indirect
	github.com/stretchr/objx v0.2.0 // indirect
	github.com/subosito/gotenv v1.2.0 // indirect
	github.com/tidwall/match v1.1.1 // indirect
	github.com/urfave/cli/v2 v2.8.1 // indirect
	github.com/vektah/gqlparser/v2 v2.4.2 // indirect
	github.com/xrash/smetrics v0.0.0-20201216005158-039620a65673 // indirect
	go.uber.org/atomic v1.7.0 // indirect
	golang.org/x/mod v0.6.0-dev.0.20220419223038-86c51ed26bb4 // indirect
	gopkg.in/ini.v1 v1.66.4 // indirect
	gopkg.in/yaml.v3 v3.0.1 // indirect
)

replace git.apache.org/thrift.git => github.com/apache/thrift v0.0.0-20180902110319-2566ecd5d999

go 1.19
